<svg width="161" height="42.44" xmlns="http://www.w3.org/2000/svg">

   <path  fill="#ffffff" d="m25.38,42.05l0,0.38l-7.75,0a1.73,1.73 0 0 1 -1.74,-1.74s-1.69,1.74 -6.26,1.74l-1,0c-4.41,0 -8.63,-1.59 -8.63,-6.08c0,-6.8 15.89,-4.76 15.89,-14.4a3.8,3.8 0 0 0 -3.79,-3.8l0,0c-5.74,0 -4.92,4.85 -3.79,6.12c0.28,1.7 -1.7,3.8 -3.8,3.8l-0.12,0a3.67,3.67 0 0 1 -3.67,-3.68c0,-3.89 6,-6.62 10.14,-6.62l2.22,0a10.4,10.4 0 0 1 10.4,10.4l0,0l0,12a1.9,1.9 0 0 0 1.9,1.9m-9.49,-17.57c0,6.76 -11.36,8.42 -8.16,15.58c1,2.24 4.24,1.9 4.86,1.71c2.52,-0.77 3.3,-3.31 3.3,-5.8l0,-11.49z"/>
   <path  fill="#ffffff" d="m52.63,42.42l-24.42,0l0.24,-0.37l14.78,-23.9l-7.67,0c-4,0 -6.26,3.23 -6.26,7.21l-0.38,0l-1,-7.59l24.47,0l-0.23,0.38l-14.79,23.9l7.63,0c4,0 6.26,-3.23 6.26,-7.21l0.38,0l0.99,7.58z"/>
   <path  fill="#ffffff" d="m78.19,25.38a12.32,12.32 0 1 1 -4.63,-5.69l0.31,0.22l-4,6.31l-4,6.3a1.26,1.26 0 0 0 0.39,1.74a1,1 0 0 0 0.33,0.15c5.78,1.61 10.76,-4.8 11.51,-8.93l0.09,-0.1zm-13.52,8.24l1.91,-3a8,8 0 0 0 -0.4,-9.18a4.82,4.82 0 0 0 -6.76,-0.91l0,0c-2,1.6 -2.28,4.15 -0.81,6.59a21.29,21.29 0 0 0 6.08,6.49"/>
   <path  fill="#ffffff" d="m91,42.05l0,0.38l-11.42,0l0,-0.38a1.9,1.9 0 0 0 1.9,-1.9l0,0l0,-33.15a1.25,1.25 0 0 0 -1.25,-1.25a1.33,1.33 0 0 0 -0.64,0.17l-0.19,-0.33l2.08,-1.2l7.59,-4.39l0,40.16a1.9,1.9 0 0 0 1.9,1.9l0,0"/>
   <path fill="#ffffff" d="m117.85,42.05l0,0.38l-7.75,0a1.74,1.74 0 0 1 -1.74,-1.74s-1.69,1.74 -6.27,1.74l-1,0c-4.39,0 -8.61,-1.59 -8.61,-6.08c0,-6.8 15.89,-4.76 15.89,-14.4a3.8,3.8 0 0 0 -3.79,-3.8l0,0c-5.75,0 -4.92,4.85 -3.8,6.12c0.29,1.7 -1.7,3.8 -3.79,3.8l-0.12,0a3.67,3.67 0 0 1 -3.67,-3.68l0,0c0,-3.89 6,-6.62 10.14,-6.62l2.22,0a10.4,10.4 0 0 1 10.44,10.4l0,0l0,12a1.9,1.9 0 0 0 1.9,1.9m-9.54,-17.57c0,6.76 -11.36,8.42 -8.16,15.58c1,2.24 4.24,1.9 4.86,1.71c2.52,-0.77 3.3,-3.31 3.3,-5.8l0,-11.49z"/>
   <path fill="#ffffff" d="m160.53,11.4c-16.02,-5.4 -30.22,12.6 -30.22,15.65l0,13.11a1.9,1.9 0 0 0 1.9,1.9l0,0l0,0.38l-11.38,0l0,-0.38a1.9,1.9 0 0 0 1.9,-1.9l0,0l0,-15.39a1.26,1.26 0 0 0 -1.89,-1.09l-0.19,-0.33l2.08,-1.2l7.58,-4.38l0,7.09c13.34,-20.11 24.69,-20.95 27.38,-20.11c5,1.58 2.84,6.65 2.84,6.65"/>

</svg>
