<svg width="81.85" height="310.57" xmlns="http://www.w3.org/2000/svg">


   <path  fill="#141e49" d="m81.12,261.61l0.73,0l0,14.94a3.35,3.35 0 0 1 -3.35,3.36s3.35,3.26 3.35,12.09l0,2c0,8.48 -3.07,16.62 -11.73,16.62c-13.11,0 -9.18,-30.66 -27.78,-30.66a7.32,7.32 0 0 0 -7.34,7.27c0,11.08 9.34,9.48 11.8,7.31c3.29,-0.54 7.32,3.28 7.32,7.32l0,0.23a7.08,7.08 0 0 1 -7.09,7.09c-7.52,0 -12.77,-11.5 -12.77,-19.57l0,-4.27a20.08,20.08 0 0 1 20.07,-20.07l23.13,0a3.66,3.66 0 0 0 3.66,-3.66l0,0m-33.85,18.3c13,0 16.23,21.93 30,15.75c4.33,-1.93 3.67,-8.18 3.3,-9.38c-1.49,-4.86 -6.38,-6.37 -11.19,-6.37l-22.11,0z"/>
   <path  fill="#141e49" d="m81.83,209.05l0,47.1l-0.73,-0.45l-46.1,-28.53l0,14.83c0,7.68 6.22,12.08 13.9,12.08l0,0.73l-14.64,1.83l0,-47.13l0.74,0.49l46.1,28.48l0,-14.8c0,-7.68 -6.22,-12.07 -13.9,-12.07l0,-0.73l14.63,-1.83z"/>
   <path fill="#141e49" d="m49,159.75a23.77,23.77 0 1 1 -11,8.93l0.42,-0.6l12.17,7.76l12.16,7.76a2.44,2.44 0 0 0 3.36,-0.73a2.23,2.23 0 0 0 0.29,-0.65c3.1,-11.15 -9.26,-20.76 -17.23,-22.21l-0.17,-0.26zm15.9,26.06l-5.78,-3.68a15.45,15.45 0 0 0 -17.7,0.76a9.31,9.31 0 0 0 -1.79,13.05l0,0c3.1,3.89 8,4.4 12.72,1.56a40.77,40.77 0 0 0 12.52,-11.73"/>
   <path  fill="#141e49" d="m81.12,135.1l0.73,0l0,22l-0.73,0a3.67,3.67 0 0 0 -3.66,-3.66l-64,0a2.42,2.42 0 0 0 -2.42,2.43a2.46,2.46 0 0 0 0.32,1.21l-0.63,0.36l-2.31,-4l-8.42,-14.68l77.46,0a3.66,3.66 0 0 0 3.66,-3.66"/>
   <path  fill="#141e49" d="m81.12,83.24l0.73,0l0,15a3.35,3.35 0 0 1 -3.35,3.35s3.35,3.26 3.35,12.09l0,2c0,8.47 -3.07,16.61 -11.73,16.61c-13.11,0 -9.18,-30.66 -27.78,-30.66a7.32,7.32 0 0 0 -7.34,7.23c0,11.08 9.34,9.48 11.8,7.32c3.29,-0.55 7.32,3.27 7.32,7.31l0,0.23a7.08,7.08 0 0 1 -7.09,7.09c-7.52,0 -12.77,-11.5 -12.77,-19.57l0,-4.24a20.08,20.08 0 0 1 20.09,-20.1l23.11,0a3.65,3.65 0 0 0 3.66,-3.65l0,0m-33.85,18.29c13,0 16.23,21.92 30,15.75c4.33,-1.94 3.67,-8.19 3.3,-9.39c-1.49,-4.85 -6.38,-6.36 -11.19,-6.36l-22.11,0z"/>
   <path  fill="#141e49" d="m22,0.9c-10.44,30.91 24.2,58.3 30.18,58.3l25.28,0a3.66,3.66 0 0 0 3.66,-3.66l0.73,0l0,22l-0.73,0a3.65,3.65 0 0 0 -3.65,-3.66l-29.69,0a2.42,2.42 0 0 0 -2.43,2.42a2.32,2.32 0 0 0 0.33,1.21l-0.63,0.37l-2.31,-4l-8.45,-14.69l13.71,0c-38.84,-25.73 -40.45,-47.7 -38.83,-52.82c3.05,-9.65 12.83,-5.47 12.83,-5.47"/>

</svg>