<svg xmlns="http://www.w3.org/2000/svg" width="20.68" height="12.89" viewBox="0 0 20.68 12.89">

  <path
    d="M20.68,9.1a3.74,3.74,0,0,0-3.17-3.76A5.28,5.28,0,0,0,12.38,0,5.08,5.08,0,0,0,8.07,2.5,3.12,3.12,0,0,0,3.91,4a3.08,3.08,0,0,0-.3,1.33,3.8,3.8,0,0,0,.06,7.59H17.31A3.74,3.74,0,0,0,20.68,9.1Z"
    fill="#3c446a" />

</svg>
