<svg xmlns="http://www.w3.org/2000/svg" width="16.19" height="18.91" viewBox="0 0 16.19 18.91">
  <path
    d="M16.19,7.65a3.7,3.7,0,0,1-.47,0,5,5,0,0,1-4.23-2.28v7.78A5.75,5.75,0,1,1,5.75,7.42h0l.35,0v2.83a2.93,2.93,0,1,0-.73,5.81,2.34,2.34,0,0,0,.38,0,3,3,0,0,0,3.05-2.9L8.83,0h2.71a5,5,0,0,0,4.65,4.51V7.65"
    fill="#3c446a" />
</svg>
