<svg width="138" height="138" viewBox="0 0 138 138" fill="none" xmlns="http://www.w3.org/2000/svg">
<g id="audiovisuel" clip-path="url(#clip0)">
<path id="Vector" d="M137.14 0H0V137.14H137.14V0Z" fill="#FACDC0"/>
<path id="filler" d="M0 0V137.14H137.14L121.794 121.794L0 0Z" fill="#141939"/>
<path id="Vector_2" d="M121.836 82.121C129.305 52.6993 111.509 22.7932 82.0875 15.3239C52.6658 7.85463 22.7597 25.6506 15.2905 55.0723C7.82117 84.494 25.6171 114.4 55.0388 121.869C84.4605 129.339 114.367 111.543 121.836 82.121Z" fill="white"/>
<path id="Vector_3" d="M110.15 43.819V43.828L107.409 46.581L88.7919 65.254L88.6829 65.354L86.8109 59.281V59.272L84.6959 52.409L84.0189 50.219L74.8149 20.321C82.1054 21.2885 89.0786 23.9085 95.2024 27.9812C101.326 32.0539 106.439 37.4716 110.15 43.821V43.819Z" fill="#47436A"/>
<path id="Vector_4" d="M111.622 89.563L82.2109 83.335L84.7939 80.744L84.9029 80.635L91.3809 74.135L108.705 56.77L113.811 51.636C116.052 57.7729 117.014 64.3034 116.637 70.8258C116.261 77.3482 114.554 83.7246 111.622 89.563V89.563Z" fill="#F5BC1C"/>
<path id="Vector_5" d="M107.091 96.894C102.576 102.913 96.716 107.793 89.9791 111.144C83.2422 114.495 75.8151 116.225 68.2908 116.194L60.0698 86.929L65.9458 88.167L75.3918 90.173L107.091 96.894Z" fill="#47436A"/>
<path id="Vector_6" d="M59.6272 115.368C52.6191 114.044 45.9919 111.182 40.2228 106.988C34.4538 102.795 29.6864 97.3744 26.2642 91.117L47.0132 70.428L47.0212 70.462L48.2212 74.716L48.6462 76.216L50.4522 82.661L51.1132 85.027L59.6272 115.368Z" fill="#F5BC1C"/>
<path id="Vector_7" d="M54.7541 51.285L47.0541 58.993L46.7271 59.311L22.8021 83.109C20.7244 76.7237 19.9941 69.9769 20.6573 63.2949C21.3205 56.6129 23.3628 50.1413 26.6551 44.289L54.7351 51.278L54.7541 51.285Z" fill="#47436A"/>
<path id="Vector_8" d="M74.8328 47.933L70.6328 46.888L61.4328 44.588L31.6138 37.166L31.6228 37.157C32.5334 36.0597 33.4918 35.011 34.4978 34.011C42.9332 25.5118 54.2588 20.4995 66.2218 19.971L74.8328 47.933Z" fill="#F5BC1C"/>
<path id="Vector_9" d="M68.5699 53.873C65.7594 53.873 63.012 54.7064 60.6752 56.2678C58.3384 57.8292 56.5171 60.0485 55.4415 62.6451C54.366 65.2416 54.0846 68.0987 54.6329 70.8552C55.1812 73.6117 56.5346 76.1437 58.5219 78.131C60.5092 80.1183 63.0412 81.4716 65.7976 82.0199C68.5541 82.5682 71.4113 82.2868 74.0078 81.2113C76.6043 80.1358 78.8236 78.3145 80.3851 75.9776C81.9465 73.6408 82.7799 70.8935 82.7799 68.083C82.7759 64.3155 81.2775 60.7034 78.6135 58.0394C75.9494 55.3754 72.3374 53.877 68.5699 53.873Z" fill="#DF2333"/>
</g>
<defs>
<clipPath id="clip0">
<rect width="137.14" height="137.14" fill="white"/>
</clipPath>
</defs>
</svg>
