<svg width="138" height="207" viewBox="0 0 138 207" fill="none" xmlns="http://www.w3.org/2000/svg">
<path d="M138 69H0V207H138V69Z" fill="#DF2333"/>
<path d="M69 207C107.108 207 138 176.108 138 138C138 99.8924 107.108 69 69 69C30.8924 69 0 99.8924 0 138C0 176.108 30.8924 207 69 207Z" fill="#FEF3F0"/>
<path d="M87.9191 178.635C110.485 168.035 120.186 141.149 109.586 118.582C98.9855 96.0162 72.099 86.3158 49.5328 96.9159C26.9666 107.516 17.2662 134.403 27.8662 156.969C38.4663 179.535 65.3529 189.235 87.9191 178.635Z" fill="#F5BC1C"/>
<path d="M0.196045 0H68.727V69.031H0.196045V0Z" fill="#3C446A"/>
<path d="M103.616 34.047H68.5681V69.095H103.616V34.047Z" fill="#F5BC1C"/>
</svg>
