<svg width="139" height="139" viewBox="0 0 139 139" fill="none" xmlns="http://www.w3.org/2000/svg">
<path d="M0.00878906 0.145996L0.00878906 138.999H138.863V0.145996H0.00878906Z" fill="#F5BC1C"/>
<path d="M0.000427246 68.9408L68.9404 68.942L68.9416 0.000984192L0.00163049 -0.000219038L0.000427246 68.9408Z" fill="#141939"/>
<path d="M0.000976562 0H68.941L0.000976562 68.942V0Z" fill="#DF2333"/>
</svg>
