<svg width="69" height="276" viewBox="0 0 69 276" fill="none" xmlns="http://www.w3.org/2000/svg">
<path d="M69 0H0V276H69V0Z" fill="#F5BC1C"/>
<path d="M0 0L69 207V0H0Z" fill="#FACDC0"/>
<path d="M69 207H0V276H69V207Z" fill="#ED7665"/>
</svg>
