{
    "key": "group_61680105ac866",
    "title": "Gabarit - Page - Scroll slide",
    "fields": [
        {
            "key": "field_6168011b7a528",
            "label": "Titre",
            "name": "titre",
            "type": "text",
            "instructions": "",
            "required": 0,
            "conditional_logic": 0,
            "wrapper": {
                "width": "",
                "class": "",
                "id": ""
            },
            "default_value": "Une structure en mouvement pour favoriser la création et faire émerger de nouvelles coopérations.",
            "placeholder": "",
            "prepend": "",
            "append": "",
            "maxlength": ""
        },
        {
            "key": "field_616801557a529",
            "label": "Textes",
            "name": "textes",
            "type": "repeater",
            "instructions": "",
            "required": 0,
            "conditional_logic": 0,
            "wrapper": {
                "width": "",
                "class": "",
                "id": ""
            },
            "collapsed": "field_616801647a52a",
            "min": 0,
            "max": 0,
            "layout": "table",
            "button_label": "Ajouter un texte",
            "sub_fields": [
                {
                    "key": "field_616801647a52a",
                    "label": "Texte",
                    "name": "texte",
                    "type": "textarea",
                    "instructions": "",
                    "required": 0,
                    "conditional_logic": 0,
                    "wrapper": {
                        "width": "",
                        "class": "",
                        "id": ""
                    },
                    "default_value": "",
                    "placeholder": "",
                    "maxlength": "",
                    "rows": 3,
                    "new_lines": "br"
                }
            ]
        },
        {
            "key": "field_616801cceac7b",
            "label": "Lien",
            "name": "lien",
            "type": "link",
            "instructions": "",
            "required": 0,
            "conditional_logic": 0,
            "wrapper": {
                "width": "",
                "class": "",
                "id": ""
            },
            "return_format": "array"
        }
    ],
    "location": [
        [
            {
                "param": "post_type",
                "operator": "==",
                "value": "post"
            }
        ]
    ],
    "menu_order": 0,
    "position": "normal",
    "style": "default",
    "label_placement": "top",
    "instruction_placement": "label",
    "hide_on_screen": "",
    "active": false,
    "description": "",
    "modified": 1634206312
}