{
    "key": "group_616829e2038b0",
    "title": "Gabarit - Page - Timeline",
    "fields": [
        {
            "key": "field_616829e218074",
            "label": "Titre",
            "name": "titre",
            "type": "text",
            "instructions": "",
            "required": 0,
            "conditional_logic": 0,
            "wrapper": {
                "width": "",
                "class": "",
                "id": ""
            },
            "default_value": "Nous mettons en œuvre des outils concrets&nbsp;et adaptés au service de chaque coopérateur&nbsp;:",
            "placeholder": "",
            "prepend": "",
            "append": "",
            "maxlength": ""
        },
        {
            "key": "field_616829e21bd65",
            "label": "Etapes",
            "name": "etapes",
            "type": "repeater",
            "instructions": "",
            "required": 0,
            "conditional_logic": 0,
            "wrapper": {
                "width": "",
                "class": "",
                "id": ""
            },
            "collapsed": "field_6168287b6c88c",
            "min": 0,
            "max": 4,
            "layout": "row",
            "button_label": "Ajouter une étape",
            "sub_fields": [
                {
                    "key": "field_61682bd228054",
                    "label": "Couleur",
                    "name": "couleur",
                    "type": "select",
                    "instructions": "",
                    "required": 0,
                    "conditional_logic": 0,
                    "wrapper": {
                        "width": "",
                        "class": "",
                        "id": ""
                    },
                    "choices": {
                        "corail": "Corail",
                        "yellow": "Jaune",
                        "blue": "Bleu",
                        "red": "Rouge"
                    },
                    "default_value": false,
                    "allow_null": 0,
                    "multiple": 0,
                    "ui": 0,
                    "return_format": "value",
                    "ajax": 0,
                    "placeholder": ""
                },
                {
                    "key": "field_616829e23bffa",
                    "label": "Recto",
                    "name": "recto",
                    "type": "wysiwyg",
                    "instructions": "",
                    "required": 0,
                    "conditional_logic": 0,
                    "wrapper": {
                        "width": "49",
                        "class": "",
                        "id": ""
                    },
                    "default_value": "",
                    "tabs": "all",
                    "toolbar": "basic_1",
                    "media_upload": 0,
                    "delay": 0
                },
                {
                    "key": "field_616829e23fc97",
                    "label": "Verso",
                    "name": "verso",
                    "type": "wysiwyg",
                    "instructions": "",
                    "required": 0,
                    "conditional_logic": 0,
                    "wrapper": {
                        "width": "49",
                        "class": "",
                        "id": ""
                    },
                    "default_value": "",
                    "tabs": "all",
                    "toolbar": "basic_1",
                    "media_upload": 0,
                    "delay": 0
                }
            ]
        },
        {
            "key": "field_616829e21fa94",
            "label": "Titre droite",
            "name": "titre_droite",
            "type": "text",
            "instructions": "",
            "required": 0,
            "conditional_logic": 0,
            "wrapper": {
                "width": "",
                "class": "",
                "id": ""
            },
            "default_value": "Un laboratoire collectif tout&nbsp;au&nbsp;long du parcours",
            "placeholder": "",
            "prepend": "",
            "append": "",
            "maxlength": ""
        },
        {
            "key": "field_61682c2828055",
            "label": "Texte droite",
            "name": "texte_droite",
            "type": "wysiwyg",
            "instructions": "",
            "required": 0,
            "conditional_logic": 0,
            "wrapper": {
                "width": "",
                "class": "",
                "id": ""
            },
            "default_value": "",
            "tabs": "all",
            "toolbar": "basic_1",
            "media_upload": 0,
            "delay": 0
        }
    ],
    "location": [
        [
            {
                "param": "post_type",
                "operator": "==",
                "value": "post"
            }
        ]
    ],
    "menu_order": 0,
    "position": "normal",
    "style": "default",
    "label_placement": "top",
    "instruction_placement": "label",
    "hide_on_screen": "",
    "active": false,
    "description": "",
    "modified": 1636367789
}