{
    "key": "group_616808ce66ba1",
    "title": "Gabarit - Page - Chiffres",
    "fields": [
        {
            "key": "field_616808ce7a325",
            "label": "Titre",
            "name": "titre",
            "type": "text",
            "instructions": "",
            "required": 0,
            "conditional_logic": 0,
            "wrapper": {
                "width": "",
                "class": "",
                "id": ""
            },
            "default_value": "[azelar] rassemble aujourd'hui",
            "placeholder": "",
            "prepend": "",
            "append": "",
            "maxlength": ""
        },
        {
            "key": "field_616808ce7e031",
            "label": "Nombre 1",
            "name": "nombre_1",
            "type": "number",
            "instructions": "",
            "required": 0,
            "conditional_logic": 0,
            "wrapper": {
                "width": "49",
                "class": "",
                "id": ""
            },
            "default_value": 42,
            "placeholder": "",
            "prepend": "",
            "append": "",
            "min": 0,
            "max": "",
            "step": ""
        },
        {
            "key": "field_616809af82c61",
            "label": "Nombre 1 - Texte",
            "name": "nombre_1_texte",
            "type": "text",
            "instructions": "",
            "required": 0,
            "conditional_logic": 0,
            "wrapper": {
                "width": "49",
                "class": "",
                "id": ""
            },
            "default_value": "coopérateurs",
            "placeholder": "",
            "prepend": "",
            "append": "",
            "maxlength": ""
        },
        {
            "key": "field_616809aa82c60",
            "label": "Nombre 2",
            "name": "nombre_2",
            "type": "number",
            "instructions": "",
            "required": 0,
            "conditional_logic": 0,
            "wrapper": {
                "width": "49",
                "class": "",
                "id": ""
            },
            "default_value": 6,
            "placeholder": "",
            "prepend": "",
            "append": "",
            "min": 0,
            "max": "",
            "step": ""
        },
        {
            "key": "field_616809c482c62",
            "label": "Nombre 2 - Texte",
            "name": "nombre_2_texte",
            "type": "text",
            "instructions": "",
            "required": 0,
            "conditional_logic": 0,
            "wrapper": {
                "width": "49",
                "class": "",
                "id": ""
            },
            "default_value": "pôles métiers",
            "placeholder": "",
            "prepend": "",
            "append": "",
            "maxlength": ""
        }
    ],
    "location": [
        [
            {
                "param": "post_type",
                "operator": "==",
                "value": "post"
            }
        ]
    ],
    "menu_order": 0,
    "position": "normal",
    "style": "default",
    "label_placement": "top",
    "instruction_placement": "label",
    "hide_on_screen": "",
    "active": false,
    "description": "",
    "modified": 1634208273
}