{
    "key": "group_61702f3871cc5",
    "title": "Gabarit - Page - Tags",
    "fields": [
        {
            "key": "field_61702f3886aad",
            "label": "Titre",
            "name": "titre",
            "type": "text",
            "instructions": "",
            "required": 0,
            "conditional_logic": 0,
            "wrapper": {
                "width": "",
                "class": "",
                "id": ""
            },
            "default_value": "Nous mettons en œuvre des outils concrets&nbsp;et adaptés au service de chaque coopérateur&nbsp;:",
            "placeholder": "",
            "prepend": "",
            "append": "",
            "maxlength": ""
        },
        {
            "key": "field_61702f388a534",
            "label": "Tags",
            "name": "tags",
            "type": "repeater",
            "instructions": "",
            "required": 0,
            "conditional_logic": 0,
            "wrapper": {
                "width": "",
                "class": "",
                "id": ""
            },
            "collapsed": "field_6168361a434eb",
            "min": 0,
            "max": 0,
            "layout": "row",
            "button_label": "Ajouter une ligne de tag",
            "sub_fields": [
                {
                    "key": "field_61702f38a5297",
                    "label": "Ligne",
                    "name": "ligne",
                    "type": "textarea",
                    "instructions": "Un tag par ligne",
                    "required": 0,
                    "conditional_logic": 0,
                    "wrapper": {
                        "width": "",
                        "class": "",
                        "id": ""
                    },
                    "default_value": "",
                    "placeholder": "",
                    "maxlength": "",
                    "rows": 4,
                    "new_lines": ""
                }
            ]
        },
        {
            "key": "field_61702f388dfa7",
            "label": "Lien",
            "name": "lien",
            "type": "link",
            "instructions": "",
            "required": 0,
            "conditional_logic": 0,
            "wrapper": {
                "width": "",
                "class": "",
                "id": ""
            },
            "return_format": "array"
        }
    ],
    "location": [
        [
            {
                "param": "post_type",
                "operator": "==",
                "value": "post"
            }
        ]
    ],
    "menu_order": 0,
    "position": "normal",
    "style": "default",
    "label_placement": "top",
    "instruction_placement": "label",
    "hide_on_screen": "",
    "active": false,
    "description": "",
    "modified": 1634742198
}