<?xml version="1.0" standalone="no"?>
<!DOCTYPE svg PUBLIC "-//W3C//DTD SVG 20010904//EN"
 "http://www.w3.org/TR/2001/REC-SVG-20010904/DTD/svg10.dtd">
<svg version="1.0" xmlns="http://www.w3.org/2000/svg"
 width="180.000000pt" height="180.000000pt" viewBox="0 0 180.000000 180.000000"
 preserveAspectRatio="xMidYMid meet">
<metadata>
Created by potrace 1.14, written by Peter Selinger 2001-2017
</metadata>
<g transform="translate(0.000000,180.000000) scale(0.100000,-0.100000)"
fill="#000000" stroke="none">
<path d="M0 900 l0 -900 900 0 900 0 0 900 0 900 -900 0 -900 0 0 -900z m1045
466 c22 -34 15 -75 -16 -99 -65 -48 -132 49 -73 107 24 25 71 20 89 -8z m235
-163 c37 -48 -3 -122 -59 -108 -52 12 -69 77 -31 115 28 28 64 25 90 -7z
m-332 -18 c62 -26 109 -64 146 -118 57 -83 66 -139 66 -394 l0 -223 33 -20 32
-20 -137 0 c-129 0 -138 1 -152 22 l-15 21 -43 -19 c-34 -15 -66 -19 -163 -19
-104 0 -125 3 -160 22 -86 46 -126 124 -105 202 15 55 60 89 200 151 216 94
261 139 268 261 4 65 3 70 -26 98 -53 53 -131 53 -184 0 -28 -28 -29 -33 -24
-87 13 -114 12 -121 -22 -155 -28 -28 -39 -32 -83 -32 -45 0 -54 4 -80 33 -24
26 -29 41 -29 81 0 83 76 160 193 196 61 19 238 19 285 0z"/>
<path d="M887 863 c-16 -24 -58 -69 -93 -100 -92 -82 -124 -133 -124 -200 0
-93 37 -133 121 -133 50 0 85 22 110 72 18 34 19 56 17 221 l-3 184 -28 -44z"/>
</g>
</svg>
