<svg width="1586" height="1105" viewBox="0 0 1586 1105" fill="none" xmlns="http://www.w3.org/2000/svg">
<g id="cover-desktop">
<g id="illustration">
<path id="Vector" d="M621 1H897V277H621V1Z" fill="#3A3759"/>
<path id="Vector_2" d="M414 70H138V277H414V70Z" fill="#FF4846"/>
<path id="Vector_3" d="M414 1H138V70H414V1Z" fill="#FFD2C7"/>
<path id="Vector_4" d="M138 1H0V70H138V1Z" fill="#141E49"/>
<path id="Vector_5" d="M138 70H0V277H138V70Z" fill="#F8C44E"/>
<path id="Vector_6" d="M1034.99 690.992V484.001H827.994V690.992H1034.99Z" fill="#F5BC1C"/>
<path id="Vector_7" d="M1035 691H932.229L1035 588.228V691Z" fill="#DF2333"/>
<path id="Vector_8" d="M932.23 588.228H1035L932.23 691V588.228Z" fill="#141939"/>
<path id="Vector_9" d="M827.993 690.992H621V484H827.993V690.992Z" fill="#FACDC0"/>
<path id="Vector_10" d="M827.993 485.492V690.993H622.493L827.993 485.492Z" fill="#DF2333"/>
<path id="Vector_11" d="M695.654 617.603H754.829V558.881H695.654V617.603Z" fill="#141939"/>
<path id="Vector_12" d="M865.425 540.557C866.335 539.647 867.416 538.926 868.606 538.433C869.795 537.941 871.07 537.688 872.357 537.689C873.644 537.689 874.918 537.943 876.107 538.437C877.296 538.93 878.376 539.652 879.286 540.563L879.297 540.574C880.207 541.485 880.929 542.565 881.422 543.755C881.914 544.945 882.167 546.22 882.167 547.507C882.166 548.795 881.912 550.07 881.419 551.259C880.925 552.448 880.202 553.528 879.291 554.438C878.381 555.348 877.3 556.069 876.11 556.562C874.921 557.054 873.646 557.307 872.359 557.306C871.072 557.306 869.798 557.052 868.609 556.558C867.42 556.065 866.34 555.343 865.43 554.432L865.419 554.421C864.509 553.511 863.787 552.43 863.294 551.24C862.802 550.05 862.549 548.775 862.549 547.488C862.55 546.2 862.804 544.925 863.298 543.736C863.791 542.547 864.514 541.467 865.425 540.557Z" fill="#FEF3F0"/>
<path id="Vector_13" d="M823.682 582.3C824.593 581.39 825.673 580.668 826.863 580.176C828.052 579.684 829.327 579.431 830.614 579.432C831.901 579.432 833.175 579.686 834.364 580.18C835.553 580.673 836.633 581.395 837.543 582.306L837.554 582.317C838.465 583.227 839.187 584.308 839.679 585.498C840.172 586.688 840.425 587.963 840.425 589.251C840.424 590.538 840.17 591.813 839.677 593.002C839.183 594.192 838.46 595.272 837.549 596.182C836.639 597.092 835.558 597.813 834.369 598.306C833.179 598.798 831.904 599.051 830.617 599.05C829.33 599.05 828.056 598.795 826.867 598.302C825.678 597.809 824.598 597.087 823.688 596.176L823.675 596.165C822.765 595.254 822.043 594.173 821.55 592.984C821.058 591.794 820.805 590.519 820.805 589.231C820.806 587.943 821.06 586.668 821.554 585.479C822.048 584.29 822.771 583.21 823.682 582.3Z" fill="#FEF3F0"/>
<path id="Vector_14" d="M781.938 624.045C782.848 623.135 783.929 622.413 785.119 621.921C786.308 621.429 787.583 621.176 788.87 621.177C790.157 621.177 791.431 621.431 792.62 621.925C793.809 622.418 794.889 623.14 795.799 624.051L795.81 624.062C796.72 624.972 797.442 626.053 797.935 627.243C798.427 628.433 798.68 629.708 798.68 630.995C798.679 632.283 798.425 633.558 797.931 634.747C797.438 635.936 796.715 637.016 795.804 637.926C794.894 638.836 793.813 639.557 792.623 640.05C791.434 640.542 790.159 640.795 788.872 640.794C787.585 640.794 786.311 640.54 785.122 640.046C783.933 639.553 782.853 638.831 781.943 637.92L781.932 637.909C781.022 636.998 780.3 635.918 779.807 634.728C779.315 633.538 779.062 632.263 779.062 630.976C779.063 629.688 779.317 628.413 779.811 627.224C780.304 626.035 781.027 624.955 781.938 624.045Z" fill="#FEF3F0"/>
<path id="Vector_15" d="M1311 484H1035V553H1311V484Z" fill="#DF2333"/>
<path id="Vector_16" d="M69 277H0V829H69V277Z" fill="#FACDC0"/>
<path id="Vector_17" d="M898 691H1035V1105H898V691Z" fill="#3C446A"/>
<path id="Vector_18" d="M345 484V277H276V484H345Z" fill="#F2C272"/>
<path id="Vector_19" d="M207 484H69V829H207V484Z" fill="#F5BC1C"/>
<path id="Vector_20" d="M1035 1H897V277H1035V1Z" fill="#F5BC1C"/>
<path id="Vector_21" d="M621 208H414V277H621V208Z" fill="#FACDC0"/>
</g>
<g id="stripes">
<path id="Vector_22" d="M620.997 484H206.997V691H620.997V484Z" fill="#DF2333"/>
<path id="Vector_23" d="M621 664.678H207V677.982H621V664.678Z" fill="#ED7665"/>
<path id="Vector_24" d="M621 633.122H207V646.426H621V633.122Z" fill="#ED7665"/>
<path id="Vector_25" d="M621 603.297H207V616.601H621V603.297Z" fill="#ED7665"/>
<path id="Vector_26" d="M621 573.473H207V586.777H621V573.473Z" fill="#ED7665"/>
<path id="Vector_27" d="M621 543.649H207V556.953H621V543.649Z" fill="#ED7665"/>
<path id="Vector_28" d="M621 510.322H207V523.626H621V510.322Z" fill="#ED7665"/>
<path id="Vector_29" d="M621 484H207V497.304H621V484Z" fill="#ED7665"/>
</g>
<g id="quadrille">
<path id="Vector_30" d="M276 829H898V1105H276V829Z" fill="#FACDC0"/>
<path id="Vector_31" d="M897 899.5H276V896.5H897V899.5Z" fill="white"/>
<path id="Vector_32" d="M897 1037.5H276V1034.5H897V1037.5Z" fill="white"/>
<path id="Vector_33" d="M346.5 1105H343.5V829H346.5V1105Z" fill="white"/>
<path id="Vector_34" d="M415.5 1105H412.5V829H415.5V1105Z" fill="white"/>
<path id="Vector_35" d="M484.5 1105H481.5V829H484.5V1105Z" fill="white"/>
<path id="Vector_36" d="M553.5 1105H550.5V829H553.5V1105Z" fill="white"/>
<path id="Vector_37" d="M622.5 1105H619.5V829H622.5V1105Z" fill="white"/>
<path id="Vector_38" d="M691.5 1105H688.5V829H691.5V1105Z" fill="white"/>
<path id="Vector_39" d="M760.5 1105H757.5V829H760.5V1105Z" fill="white"/>
<path id="Vector_40" d="M829.5 1105H826.5V829H829.5V1105Z" fill="white"/>
<path id="Vector_41" d="M897 968.5H276V965.5H897V968.5Z" fill="white"/>
</g>
<g id="pyramid">
<path id="Vector_42" d="M275.998 829H0V1105H275.998V829Z" fill="#DF2333"/>
<path id="Vector_43" d="M0.000976562 1050.7L137.991 1105L139.354 1104.46V829.018L0.000976562 1050.7ZM138.701 967.712C138.686 967.697 138.671 967.682 138.656 967.682L138.641 967.697C138.416 967.472 138.192 967.248 137.982 967.023C137.772 966.798 137.533 966.589 137.308 966.364L137.323 966.349C137.323 966.334 137.308 966.319 137.293 966.304C137.308 966.319 137.323 966.334 137.338 966.334L137.383 966.289C137.548 966.484 137.728 966.678 137.907 966.873C138.177 967.128 138.446 967.382 138.716 967.622L138.671 967.667C138.668 967.682 138.683 967.697 138.701 967.712Z" fill="#FACDC0"/>
<path id="Vector_44" d="M276 1050.7L139.358 1104.46V829.018L276 1050.7Z" fill="#ED7665"/>
</g>
<g id="sun">
<path id="Vector_45" d="M276 277H69V484H276V277Z" fill="#3A3759"/>
<path id="Vector_46" d="M172.5 484C229.661 484 276 437.661 276 380.5C276 323.339 229.661 277 172.5 277C115.339 277 69 323.339 69 380.5C69 437.661 115.339 484 172.5 484Z" fill="white"/>
<path id="Vector_47" d="M173 453C212.765 453 245 420.765 245 381C245 341.235 212.765 309 173 309C133.235 309 101 341.235 101 381C101 420.765 133.235 453 173 453Z" fill="#F5BC1C"/>
</g>
<g id="sunrise">
<path id="Vector_48" d="M1173.01 1104.72H1586V965.989H1173.01V1104.72Z" fill="#141939"/>
<path id="Vector_49" d="M1173 967.727H1586V829H1173V967.727Z" fill="#F5BC1C"/>
<path id="Vector_50" d="M1491.47 967.768V968.085H1586V874.421C1585.32 874.401 1584.64 874.391 1583.96 874.391C1532.87 874.391 1491.47 916.203 1491.47 967.768Z" fill="#FBE7C9"/>
<path id="Vector_51" d="M1491.54 968.803C1493.35 1018.76 1534.03 1058.7 1583.96 1058.7C1584.64 1058.7 1585.32 1058.69 1586 1058.67V968.806L1491.54 968.803Z" fill="#3A3759"/>
</g>
<g id="triangle">
<path id="Vector_52" d="M1173 829.002V1104.99H1035L1039.94 1095.13L1044.76 1085.48L1049.69 1075.61L1054.52 1065.96L1059.45 1056.09L1064.28 1046.43L1069.21 1036.57L1074.04 1026.91L1078.98 1017.04L1083.8 1007.39L1088.74 997.525L1093.56 987.871L1098.5 978.002L1104 967.002L1108.93 957.131L1113.76 947.477L1118.69 937.613L1123.52 927.959L1128.46 918.088L1133.28 908.434L1138.22 898.563L1143.05 888.909L1147.97 879.045L1152.8 869.392L1157.74 859.521L1162.56 849.867L1167.5 840.002L1173 829.002Z" fill="#FFFBFA"/>
<path id="Vector_53" d="M1173 1095.13V1105H1035V1104.99L1039.94 1095.13H1173Z" fill="#3A3759"/>
<path id="Vector_54" d="M1173 1075.61V1085.47H1044.76L1049.7 1075.61H1173Z" fill="#3A3759"/>
<path id="Vector_55" d="M1173 1056.09V1065.96H1054.52L1059.46 1056.09H1173Z" fill="#3A3759"/>
<path id="Vector_56" d="M1173 1036.57V1046.43H1064.28L1069.21 1036.56L1173 1036.57Z" fill="#3A3759"/>
<path id="Vector_57" d="M1173 1017.04V1026.91H1074.04L1078.98 1017.04H1173Z" fill="#3A3759"/>
<path id="Vector_58" d="M1173 997.524V1007.39H1083.8L1088.74 997.524H1173Z" fill="#3A3759"/>
<path id="Vector_59" d="M1173 977.999V987.87H1093.56L1098.5 977.999H1173Z" fill="#3A3759"/>
<path id="Vector_60" d="M1173 957.133V967.004H1104L1108.93 957.133H1173Z" fill="#3A3759"/>
<path id="Vector_61" d="M1173 937.615V947.479H1113.76L1118.69 937.615H1173Z" fill="#3A3759"/>
<path id="Vector_62" d="M1173 918.089V927.96H1123.52L1128.46 918.089H1173Z" fill="#3A3759"/>
<path id="Vector_63" d="M1173 898.564V908.435H1133.28L1138.21 898.564H1173Z" fill="#3A3759"/>
<path id="Vector_64" d="M1173 879.046V888.91H1143.05L1147.97 879.046H1173Z" fill="#3A3759"/>
<path id="Vector_65" d="M1173 859.52V869.392H1152.8L1157.74 859.521L1173 859.52Z" fill="#3A3759"/>
<path id="Vector_66" d="M1173 829.002L1167.5 840.002L1162.56 849.866L1157.74 859.52L1152.8 869.392L1147.97 879.046L1143.04 888.91L1138.21 898.564L1133.27 908.435L1128.45 918.089L1123.52 927.961L1118.69 937.615L1113.76 947.479L1108.93 957.133L1104 967.002L1098.5 978.002L1093.56 987.873L1088.74 997.527L1083.8 1007.39L1078.98 1017.04L1074.04 1026.91L1069.21 1036.57L1064.28 1046.43L1059.45 1056.09L1054.51 1065.96L1049.69 1075.61L1044.76 1085.47L1039.93 1095.13L1035 1104.99V829.002H1173Z" fill="#FACDC0"/>
</g>
<g id="window">
<path id="Vector_67" d="M1586 1H1311V829H1586V1Z" fill="#3C446A"/>
<path id="Vector_68" d="M1512.65 199.72C1512.03 192.767 1510.34 185.951 1507.65 179.51C1504.37 171.664 1499.63 164.516 1493.67 158.45C1487.77 152.409 1480.76 147.578 1473.01 144.23C1465.02 140.767 1456.41 138.987 1447.71 139C1439 138.987 1430.39 140.767 1422.41 144.23C1414.66 147.578 1407.64 152.409 1401.75 158.45C1395.79 164.516 1391.05 171.664 1387.77 179.51C1385.07 185.949 1383.39 192.766 1382.77 199.72H1382.49V691.756H1512.92V199.72H1512.65ZM1501.68 680.506H1393.74V205.4C1394.02 174.99 1418.23 150.25 1447.71 150.25C1477.19 150.25 1501.4 174.99 1501.67 205.4L1501.68 205.74V680.506Z" fill="#F5BC1C"/>
<path id="Vector_69" d="M1501.68 205.74V680.506H1393.74V205.4C1394.02 174.99 1418.23 150.25 1447.71 150.25C1477.19 150.25 1501.4 174.99 1501.67 205.4L1501.68 205.74Z" fill="white"/>
</g>
<g id="round">
<path id="Vector_70" d="M466.24 54.579C453.086 67.7276 445.507 85.4514 445.081 104.058C444.654 122.664 451.414 140.717 463.951 154.456L566.081 52.299C552.337 39.7543 534.296 32.9922 515.705 33.4167C497.113 33.8413 479.398 41.4199 466.24 54.579ZM464.942 155.523C464.605 155.175 464.268 154.815 463.953 154.456L463.897 154.512L466.24 156.856L466.297 156.8C465.936 156.474 465.589 156.148 465.231 155.811C465.126 155.725 465.042 155.624 464.942 155.523ZM566.14 52.242L566.083 52.298C566.432 52.598 566.769 52.916 567.116 53.242L567.15 53.276C567.588 53.725 568.003 54.176 568.43 54.635L568.485 54.579L566.14 52.242Z" fill="#141939"/>
<path id="Vector_71" d="M621 1V207.787H517.849L619.894 105.719L568.764 54.579L566.42 52.242L517.637 3.44202L466.521 54.583L415.391 105.723L464.174 154.515L466.518 156.863L517.421 207.79H414.176V1H621Z" fill="#141939"/>
<path id="Vector_72" d="M466.24 54.579C453.086 67.7276 445.507 85.4514 445.081 104.058C444.654 122.664 451.414 140.717 463.951 154.456L566.081 52.299C552.337 39.7543 534.296 32.9922 515.705 33.4167C497.113 33.8413 479.398 41.4199 466.24 54.579ZM464.942 155.523C464.605 155.175 464.268 154.815 463.953 154.456L463.897 154.512L466.24 156.856L466.297 156.8C465.936 156.474 465.589 156.148 465.231 155.811C465.126 155.725 465.042 155.624 464.942 155.523ZM566.14 52.242L566.083 52.298C566.432 52.598 566.769 52.916 567.116 53.242L567.15 53.276C567.588 53.725 568.003 54.176 568.43 54.635L568.485 54.579L566.14 52.242ZM517.145 207.787L517.359 208L517.571 207.787H517.145Z" fill="#FEF3F0"/>
<path id="Vector_73" d="M466.238 54.579L415.108 105.72L463.89 154.512L463.946 154.456C451.409 140.717 444.65 122.663 445.077 104.057C445.504 85.4508 453.084 67.7272 466.238 54.579Z" fill="#FEF3F1"/>
<path id="Vector_74" d="M566.079 52.298L566.136 52.242L517.354 3.44202L466.237 54.582C479.395 41.4221 497.109 33.8426 515.701 33.4173C534.293 32.992 552.335 39.7535 566.079 52.298Z" fill="#FEF3F1"/>
<path id="Vector_75" d="M568.48 54.579L568.425 54.635C580.962 68.374 587.722 86.4273 587.295 105.033C586.869 123.64 579.289 141.363 566.136 154.512C552.978 167.67 535.264 175.249 516.674 175.676C498.083 176.103 480.041 169.344 466.295 156.804L466.238 156.86L517.141 207.784H517.566L619.607 105.716L568.48 54.579Z" fill="#FEF3F1"/>
<path id="Vector_76" d="M466.294 156.804L466.237 156.86C465.889 156.512 465.553 156.164 465.228 155.815C465.586 156.152 465.934 156.478 466.294 156.804Z" fill="#F5BC1C"/>
<path id="Vector_77" d="M566.079 52.298L463.949 154.456C451.412 140.717 444.652 122.664 445.078 104.058C445.505 85.4515 453.084 67.7276 466.238 54.579C479.396 41.4198 497.111 33.841 515.702 33.4163C534.294 32.9915 552.335 39.7534 566.079 52.298Z" fill="#F5BC1C"/>
<path id="Vector_78" d="M568.48 54.578L568.425 54.634C567.998 54.173 567.583 53.724 567.145 53.275C567.594 53.702 568.042 54.14 568.48 54.578Z" fill="#F5BC1C"/>
<path id="Vector_79" d="M566.135 154.512C552.977 167.67 535.264 175.249 516.673 175.676C498.082 176.103 480.041 169.344 466.294 156.804C465.933 156.478 465.586 156.152 465.228 155.815C465.128 155.725 465.036 155.624 464.937 155.523C464.6 155.175 464.263 154.815 463.948 154.456L566.081 52.298C566.43 52.598 566.767 52.916 567.113 53.242L567.147 53.276C567.585 53.725 568 54.176 568.427 54.635C580.964 68.3742 587.723 86.4278 587.296 105.034C586.869 123.64 579.289 141.364 566.135 154.512Z" fill="#DF2333"/>
<path id="Vector_80" d="M464.937 155.522C464.589 155.196 464.241 154.859 463.892 154.511L463.948 154.455C464.263 154.815 464.6 155.174 464.937 155.522Z" fill="#DF2333"/>
<path id="Vector_81" d="M567.111 53.242C566.764 52.916 566.428 52.602 566.078 52.298L566.135 52.242C566.461 52.568 566.786 52.905 567.111 53.242Z" fill="#DF2333"/>
</g>
<g id="losange">
<path id="Vector_82" d="M1035 277H1311V1H1035V277Z" fill="#FFD2C7"/>
<path id="Vector_83" d="M1173.79 1V137.8H1310.6L1173.79 1Z" fill="#141E49"/>
<path id="Vector_84" d="M1173.79 137.803V274.603L1310.6 137.803H1173.79Z" fill="#DF2333"/>
<path id="Vector_85" d="M1036.99 137.803L1173.79 274.603V137.803H1036.99Z" fill="#FFF4F1"/>
<path id="Vector_86" d="M1173.79 1L1036.99 137.8H1173.79L1173.79 1Z" fill="#F8C44E"/>
</g>
<g id="annuaire">
<path id="Vector_87" d="M1035 553H1311V829H1035V553Z" fill="white"/>
<text id="Annuaire des coop&#195;&#169;rateurs" fill="#141939" xml:space="preserve" style="white-space: pre" font-family="Source Sans Pro" font-size="30" font-weight="bold" letter-spacing="0em"><tspan x="1095.11" y="616.212">Annuaire des&#10;</tspan><tspan x="1094" y="659.212">coop&#xe9;rateurs</tspan></text>
<g id="Vector_88">
<path d="M1175.17 725.995L1142.16 716.78V762.504L1174.43 771.622V771.697H1220.13V726L1175.17 725.995ZM1145.17 759.864V720.19L1174.43 728.925V768.604L1145.17 759.864ZM1217.13 768.696H1177.43V729H1217.13L1217.13 768.696Z" fill="#DF2333"/>
<path d="M1211.86 735.383H1200.09V738.388H1211.86V735.383Z" fill="#DF2333"/>
<path d="M1211.86 743.269H1200.09V746.274H1211.86V743.269Z" fill="#DF2333"/>
<path d="M1211.86 751.156H1200.09V754.161H1211.86V751.156Z" fill="#DF2333"/>
<path d="M1211.86 759.042H1200.09V762.046H1211.86V759.042Z" fill="#DF2333"/>
<path d="M1194.47 735.646H1182.71V738.651H1194.47V735.646Z" fill="#DF2333"/>
<path d="M1194.47 743.532H1182.71V746.537H1194.47V743.532Z" fill="#DF2333"/>
<path d="M1194.47 751.419H1182.71V754.423H1194.47V751.419Z" fill="#DF2333"/>
<path d="M1194.47 759.304H1182.71V762.309H1194.47V759.304Z" fill="#DF2333"/>
</g>
</g>
<g id="baseline">
<path id="Vector_89" d="M209 694H897V829H209V694Z" fill="white"/>
<text id="RASSEMBLER &#194;&#183; CR&#195;&#137;ER &#194;&#183; TRANSFORMER" fill="#3C446A" xml:space="preserve" style="white-space: pre" font-family="Source Sans Pro" font-size="30" font-weight="600" letter-spacing="0em"><tspan x="305" y="768.86">RASSEMBLER &#xb7; CR&#xc9;ER &#xb7; TRANSFORMER</tspan></text>
</g>
<g id="h1">
<path id="Vector_90" d="M1311 277H345V483H1311V277Z" fill="white"/>
<text id="La coop&#195;&#169;rative d&#39;activit&#195;&#169; Art &#38; Culture" fill="#3C446A" xml:space="preserve" style="white-space: pre" font-family="Source Sans Pro" font-size="40" font-weight="bold" letter-spacing="0em"><tspan x="490" y="392.98">La coop&#xe9;rative d&#39;activit&#xe9; Art &#38; Culture </tspan></text>
</g>
<rect id="mask_round" x="414" y="1" width="207" height="276" fill="#00FF00"/>
<rect id="mask_losange" x="1035" y="1" width="276" height="276" fill="#00FF00"/>
<rect id="mask_stripes" x="207" y="484" width="414" height="207" fill="#00FF00"/>
<rect id="mask_window" x="1311" y="1" width="275" height="828" fill="#00FF00"/>
<rect id="mask_sun" x="69" y="277" width="275" height="207" fill="#00FF00"/>
<rect id="mask_rect1" x="621" y="484" width="207" height="207" fill="#00FF00"/>
<rect id="mask_rect2" x="828" y="484" width="207" height="207" fill="#00FF00"/>
<rect id="mask_pyramid" y="829" width="276" height="276" fill="#00FF00"/>
<rect id="mask_quadrille" x="276" y="829" width="622" height="276" fill="#00FF00"/>
<rect id="mask_triangle" x="1035" y="829" width="138" height="276" fill="#00FF00"/>
<rect id="mask_sunrise" x="1173" y="829" width="413" height="276" fill="#00FF00"/>
<rect id="rect_3" width="415" height="277" fill="#00FF00"/>
<rect id="Rectangle 1" x="621" y="1" width="414" height="276" fill="#C4C4C4"/>
<rect id="Rectangle 2" y="277" width="69" height="552" fill="#C4C4C4"/>
<rect id="Rectangle 3" x="69" y="484" width="138" height="345" fill="#C4C4C4"/>
<rect id="Rectangle 4" x="898" y="691" width="137" height="414" fill="#C4C4C4"/>
<rect id="Rectangle 5" x="1035" y="484" width="276" height="69" fill="#C4C4C4"/>
<rect id="Rectangle 6" x="345" y="275" width="967" height="210" fill="#C4C4C4"/>
<rect id="Rectangle 7" x="207" y="691" width="692" height="138" fill="#C4C4C4"/>
<rect id="Rectangle 8" x="1034" y="553" width="277" height="276" fill="#C4C4C4"/>
</g>
</svg>

